<svg xmlns="http://www.w3.org/2000/svg" width="16" height="16" viewBox="0 0 16 16" preserveAspectRatio="xMidYMid meet">
    <g fill="none" fill-rule="evenodd">
      <rect width="16" height="16"></rect>
      <polyline stroke="#0194F3" stroke-linecap="round" stroke-linejoin="round" stroke-width="2" points="3 10 8 5 13 10"></polyline>
    </g>
  </svg>