<svg xmlns="http://www.w3.org/2000/svg" width="24" height="24" viewBox="0 0 24 24" fill="none" preserveAspectRatio="xMidYMid meet">
    <g id="24pt / ic flag circular id">
      <path id="Flag" d="M3 12H12H21V12C21 16.9706 16.9706 21 12 21V21V21C7.02944 21 3 16.9706 3 12V12Z" fill="white"></path>
      <path id="Flag_2" d="M3 12C3 7.02944 7.02944 3 12 3V3V3C16.9706 3 21 7.02944 21 12V12H3V12Z" fill="#E70011"></path>
      <path id="Shape" fill-rule="evenodd" clip-rule="evenodd" d="M12 22C17.5228 22 22 17.5228 22 12C22 6.47715 17.5228 2 12 2C6.47715 2 2 6.47715 2 12C2 17.5228 6.47715 22 12 22Z" stroke="#ffffff" stroke-width="2" stroke-linecap="round" stroke-linejoin="round"></path>
    </g>
  </svg>