<svg xmlns="http://www.w3.org/2000/svg" width="16" height="16" viewBox="0 0 16 16" preserveAspectRatio="xMidYMid meet">
    <g fill="none" fill-rule="evenodd">
      <rect width="16" height="16"></rect>
      <path stroke="#0194F3" stroke-linecap="round" stroke-linejoin="round" stroke-width="2" d="M2,14 L14,14"></path>
      <path stroke="#687176" stroke-linecap="round" stroke-linejoin="round" stroke-width="2" d="M8,6 L10.1282918,5.29056942 C11.5446529,4.81844904 13.1042146,5.30561942 14,6.5 L14,6.5 L4.96341722,9.37527634 C3.91084447,9.71018585 2.78606786,9.12840485 2.45115835,8.07583209 C2.44514406,8.05693007 2.43941132,8.03793961 2.43396201,8.01886703 L2,6.5 L3.5,7.25 L6,6.5 L3,2 L3.5,2 L8,6 Z"></path>
    </g>
  </svg>